Acb_L,Accumbens_L,61_L,L,Acb,Subcort,Subcort_Acb_L,L_Subcort_Acb,0.0546,712
Acb_R,Accumbens_R,71_R,R,Acb,Subcort,Subcort_Acb_R,R_Subcort_Acb,0.0515,672
Amg_L,Amygdala_L,60_L,L,Amg,Subcort,Subcort_Amg_L,L_Subcort_Amg,0.1877,2448
Amg_R,Amygdala_R,70_R,R,Amg,Subcort,Subcort_Amg_R,R_Subcort_Amg,0.2245,2928
AnG_L,Angular_Gyrus_L,21_L,L,AnG,Par,Par_AnG_L,L_Par_AnG,0.5815,7584
AnG_R,Angular_Gyrus_R,21_R,R,AnG,Par,Par_AnG_R,R_Par_AnG,0.8962,11688
BA44_L,Inferior_Frontal_Gyrus_pars_opercularis_L,6_L,L,BA44,Fr,Fr_BA44_L,L_Fr_BA44,0.4472,5832
BA44_R,Inferior_Frontal_Gyrus_pars_opercularis_R,6_R,R,BA44,Fr,Fr_BA44_R,R_Fr_BA44,0.4018,5240
BA45_L,Inferior_Frontal_Gyrus_pars_triangularis_L,5_L,L,BA45,Fr,Fr_BA45_L,L_Fr_BA45,0.3723,4856
BA45_R,Inferior_Frontal_Gyrus_pars_triangularis_R,5_R,R,BA45,Fr,Fr_BA45_R,R_Fr_BA45,0.3042,3968
Brain_Stem_L,Brain-Stem_L,58_L,L,Brain_Stem,Subcort,Subcort_Brain_Stem_L,L_Subcort_Brain_Stem,1.3249,17280
Brain_Stem_R,Brain-Stem_R,58_R,R,Brain_Stem,Subcort,Subcort_Brain_Stem_R,R_Subcort_Brain_Stem,1.4482,18888
CALC_L,Intracalcarine_Cortex_L,24_L,L,CALC,Occ,Occ_CALC_L,L_Occ_CALC,0.387,5048
CALC_R,Intracalcarine_Cortex_R,24_R,R,CALC,Occ,Occ_CALC_R,R_Occ_CALC,0.4582,5976
Cd_L,Caudate_L,55_L,L,Cd,Subcort,Subcort_Cd_L,L_Subcort_Cd,0.2987,3896
Cd_R,Caudate_R,66_R,R,Cd,Subcort,Subcort_Cd_R,R_Subcort_Cd,0.3134,4088
Cen_Op_L,Central_Opercular_Cortex_L,42_L,L,Cen_Op,Fr,Fr_Cen_Op_L,L_Fr_Cen_Op,0.6036,7872
Cen_Op_R,Central_Opercular_Cortex_R,42_R,R,Cen_Op,Fr,Fr_Cen_Op_R,R_Fr_Cen_Op,0.5533,7216
CgG_ant_L,Cingulate_Gyrus_anterior_L,29_L,L,CgG_ant,Fr,Fr_CgG_ant_L,L_Fr_CgG_ant,0.6128,7992
CgG_ant_R,Cingulate_Gyrus_anterior_R,29_R,R,CgG_ant,Fr,Fr_CgG_ant_R,R_Fr_CgG_ant,0.7772,10136
CgG_post_L,Cingulate_Gyrus_posterior_L,30_L,L,CgG_post,Par,Par_CgG_post_L,L_Par_CgG_post,0.622,8112
CgG_post_R,Cingulate_Gyrus_posterior_R,30_R,R,CgG_post,Par,Par_CgG_post_R,R_Par_CgG_post,0.7121,9288
Crus_II_L,Crus_II_L,82_L,L,Crus_II,Cb,Cb_Crus_II_L,L_Cb_Crus_II,1.2329,16080
Crus_II_R,Crus_II_R,84_R,R,Crus_II,Cb,Cb_Crus_II_R,R_Cb_Crus_II,1.1716,15280
Crus_I_L,Crus_I_L,79_L,L,Crus_I,Cb,Cb_Crus_I_L,L_Cb_Crus_I,1.6016,20888
Crus_I_R,Crus_I_R,81_R,R,Crus_I,Cb,Cb_Crus_I_R,R_Cb_Crus_I,1.6132,21040
Cun_L,Cuneal_Cortex_L,32_L,L,Cun,Occ,Occ_Cun_L,L_Occ_Cun,0.3079,4016
Cun_R,Cuneal_Cortex_R,32_R,R,Cun,Occ,Occ_Cun_R,R_Occ_Cun,0.3981,5192
FL_Med_GM_L,Frontal_Medial_Cortex_L,25_L,L,FL_Med_GM,Fr,Fr_FL_Med_GM_L,L_Fr_FL_Med_GM,0.2601,3392
FL_Med_GM_R,Frontal_Medial_Cortex_R,25_R,R,FL_Med_GM,Fr,Fr_FL_Med_GM_R,R_Fr_FL_Med_GM,0.2723,3552
FL_Op_L,Frontal_Operculum_Cortex_L,41_L,L,FL_Op,Fr,Fr_FL_Op_L,L_Fr_FL_Op,0.222,2896
FL_Op_R,Frontal_Operculum_Cortex_R,41_R,R,FL_Op,Fr,Fr_FL_Op_R,R_Fr_FL_Op,0.1994,2600
FRP_L,Frontal_Pole_L,1_L,L,FRP,Fr,Fr_FRP_L,L_Fr_FRP,4.3311,56488
FRP_R,Frontal_Pole_R,1_R,R,FRP,Fr,Fr_FRP_R,R_Fr_FRP,5.0273,65568
GP_L,Pallidum_L,57_L,L,GP,Subcort,Subcort_GP_L,L_Subcort_GP,0.1638,2136
GP_R,Pallidum_R,68_R,R,GP,Subcort,Subcort_GP_R,R_Subcort_GP,0.1595,2080
HG_L,Heschl's_Gyrus_(includes_H1_and_H2)_L,45_L,L,HG,Temp,Temp_HG_L,L_Temp_HG,0.1963,2560
HG_R,Heschl's_Gyrus_(includes_H1_and_H2)_R,45_R,R,HG,Temp,Temp_HG_R,R_Temp_HG,0.1742,2272
Hi_L,Hippocampus_L,59_L,L,Hi,Subcort,Subcort_Hi_L,L_Subcort_Hi,0.4239,5528
Hi_R,Hippocampus_R,69_R,R,Hi,Subcort,Subcort_Hi_R,R_Subcort_Hi,0.4294,5600
ITG_ant_L,Inferior_Temporal_Gyrus_anterior_L,14_L,L,ITG_ant,Temp,Temp_ITG_ant_L,L_Temp_ITG_ant,0.2024,2640
ITG_ant_R,Inferior_Temporal_Gyrus_anterior_R,14_R,R,ITG_ant,Temp,Temp_ITG_ant_R,R_Temp_ITG_ant,0.1944,2536
ITG_post_L,Inferior_Temporal_Gyrus_posterior_L,15_L,L,ITG_post,Temp,Temp_ITG_post_L,L_Temp_ITG_post,0.6103,7960
ITG_post_R,Inferior_Temporal_Gyrus_posterior_R,15_R,R,ITG_post,Temp,Temp_ITG_post_R,R_Temp_ITG_post,0.5809,7576
ITG_tempocc_L,Inferior_Temporal_Gyrus_temporooccipital_L,16_L,L,ITG_tempocc,Temp,Temp_ITG_tempocc_L,L_Temp_ITG_tempocc,0.4269,5568
ITG_tempocc_R,Inferior_Temporal_Gyrus_temporooccipital_R,16_R,R,ITG_tempocc,Temp,Temp_ITG_tempocc_R,R_Temp_ITG_tempocc,0.4748,6192
IX_L,IX_L,94_L,L,IX,Cb,Cb_IX_L,L_Cb_IX,0.3686,4808
IX_R,IX_R,96_R,R,IX,Cb,Cb_IX_R,R_Cb_IX,0.4202,5480
I_IV_L,I-IV_L,72_L,L,I_IV,Cb,Cb_I_IV_L,L_Cb_I_IV,0.3435,4480
I_IV_R,I-IV_R,73_R,R,I_IV,Cb,Cb_I_IV_R,R_Cb_I_IV,0.43,5608
Ins_L,Insular_Cortex_L,2_L,L,Ins,Ins,Ins_Ins_L,L_Ins_Ins,0.7115,9280
Ins_R,Insular_Cortex_R,2_R,R,Ins,Ins,Ins_Ins_R,R_Ins_Ins,0.7244,9448
Lat_OL_inf_L,Lateral_Occipital_Cortex_inferior_L,23_L,L,Lat_OL_inf,Occ,Occ_Lat_OL_inf_L,L_Occ_Lat_OL_inf,1.2538,16352
Lat_OL_inf_R,Lateral_Occipital_Cortex_inferior_R,23_R,R,Lat_OL_inf,Occ,Occ_Lat_OL_inf_R,R_Occ_Lat_OL_inf,1.2544,16360
Lat_OL_sup_L,Lateral_Occipital_Cortex_superior_L,22_L,L,Lat_OL_sup,Occ,Occ_Lat_OL_sup_L,L_Occ_Lat_OL_sup,3.0393,39640
Lat_OL_sup_R,Lateral_Occipital_Cortex_superior_R,22_R,R,Lat_OL_sup,Occ,Occ_Lat_OL_sup_R,R_Occ_Lat_OL_sup,2.959,38592
LiG_L,Lingual_Gyrus_L,36_L,L,LiG,Occ,Occ_LiG_L,L_Occ_LiG,0.936,12208
LiG_R,Lingual_Gyrus_R,36_R,R,LiG,Occ,Occ_LiG_R,R_Occ_LiG,1.0673,13920
MFG_L,Middle_Frontal_Gyrus_L,4_L,L,MFG,Fr,Fr_MFG_L,L_Fr_MFG,1.6899,22040
MFG_R,Middle_Frontal_Gyrus_R,4_R,R,MFG,Fr,Fr_MFG_R,R_Fr_MFG,1.5709,20488
MTG_ant_L,Middle_Temporal_Gyrus_anterior_L,11_L,L,MTG_ant,Temp,Temp_MTG_ant_L,L_Temp_MTG_ant,0.2736,3568
MTG_ant_R,Middle_Temporal_Gyrus_anterior_R,11_R,R,MTG_ant,Temp,Temp_MTG_ant_R,R_Temp_MTG_ant,0.2466,3216
MTG_post_L,Middle_Temporal_Gyrus_posterior_L,12_L,L,MTG_post,Temp,Temp_MTG_post_L,L_Temp_MTG_post,0.779,10160
MTG_post_R,Middle_Temporal_Gyrus_posterior_R,12_R,R,MTG_post,Temp,Temp_MTG_post_R,R_Temp_MTG_post,0.7698,10040
MTG_tempocc_L,Middle_Temporal_Gyrus_temporooccipital_L,13_L,L,MTG_tempocc,Temp,Temp_MTG_tempocc_L,L_Temp_MTG_tempocc,0.5232,6824
MTG_tempocc_R,Middle_Temporal_Gyrus_temporooccipital_R,13_R,R,MTG_tempocc,Temp,Temp_MTG_tempocc_R,R_Temp_MTG_tempocc,0.706,9208
OCP_L,Occipital_Pole_L,48_L,L,OCP,Occ,Occ_OCP_L,L_Occ_OCP,1.62,21128
OCP_R,Occipital_Pole_R,48_R,R,OCP,Occ,Occ_OCP_R,R_Occ_OCP,1.5433,20128
OFC_L,Frontal_Orbital_Cortex_L,33_L,L,OFC,Fr,Fr_OFC_L,L_Fr_OFC,1.0446,13624
OFC_R,Frontal_Orbital_Cortex_R,33_R,R,OFC,Fr,Fr_OFC_R,R_Fr_OFC,0.8863,11560
OL_FuG_L,Occipital_Fusiform_Gyrus_L,40_L,L,OL_FuG,Occ,Occ_OL_FuG_L,L_Occ_OL_FuG,0.568,7408
OL_FuG_R,Occipital_Fusiform_Gyrus_R,40_R,R,OL_FuG,Occ,Occ_OL_FuG_R,R_Occ_OL_FuG,0.5398,7040
PAC_L,Paracingulate_Gyrus_L,28_L,L,PAC,Fr,Fr_PAC_L,L_Fr_PAC,0.8195,10688
PAC_R,Paracingulate_Gyrus_R,28_R,R,PAC,Fr,Fr_PAC_R,R_Fr_PAC,0.8397,10952
PCu_L,Precuneous_Cortex_L,31_L,L,PCu,Occ,Occ_PCu_L,L_Occ_PCu,1.52,19824
PCu_R,Precuneous_Cortex_R,31_R,R,PCu,Occ,Occ_PCu_R,R_Occ_PCu,1.7181,22408
PL_Op_L,Parietal_Operculum_Cortex_L,43_L,L,PL_Op,Par,Par_PL_Op_L,L_Par_PL_Op,0.3533,4608
PL_Op_R,Parietal_Operculum_Cortex_R,43_R,R,PL_Op,Par,Par_PL_Op_R,R_Par_PL_Op,0.3331,4344
PP_L,Planum_Polare_L,44_L,L,PP,Temp,Temp_PP_L,L_Temp_PP,0.2208,2880
PP_R,Planum_Polare_R,44_R,R,PP,Temp,Temp_PP_R,R_Temp_PP,0.2386,3112
PT_L,Planum_Temporale_L,46_L,L,PT,Temp,Temp_PT_L,L_Temp_PT,0.3269,4264
PT_R,Planum_Temporale_R,46_R,R,PT,Temp,Temp_PT_R,R_Temp_PT,0.257,3352
PhG_ant_L,Parahippocampal_Gyrus_anterior_L,34_L,L,PhG_ant,Temp,Temp_PhG_ant_L,L_Temp_PhG_ant,0.3607,4704
PhG_ant_R,Parahippocampal_Gyrus_anterior_R,34_R,R,PhG_ant,Temp,Temp_PhG_ant_R,R_Temp_PhG_ant,0.4048,5280
PhG_post_L,Parahippocampal_Gyrus_posterior_L,35_L,L,PhG_post,Temp,Temp_PhG_post_L,L_Temp_PhG_post,0.2392,3120
PhG_post_R,Parahippocampal_Gyrus_posterior_R,35_R,R,PhG_post,Temp,Temp_PhG_post_R,R_Temp_PhG_post,0.1963,2560
PoG_L,Postcentral_Gyrus_L,17_L,L,PoG,Par,Par_PoG_L,L_Par_PoG,2.2254,29024
PoG_R,Postcentral_Gyrus_R,17_R,R,PoG,Par,Par_PoG_R,R_Par_PoG,1.9911,25968
PrG_L,Precentral_Gyrus_L,7_L,L,PrG,Fr,Fr_PrG_L,L_Fr_PrG,2.6351,34368
PrG_R,Precentral_Gyrus_R,7_R,R,PrG,Fr,Fr_PrG_R,R_Fr_PrG,2.5449,33192
Pu_L,Putamen_L,56_L,L,Pu,Subcort,Subcort_Pu_L,L_Subcort_Pu,0.4901,6392
Pu_R,Putamen_R,67_R,R,Pu,Subcort,Subcort_Pu_R,R_Subcort_Pu,0.4883,6368
SCA_L,Subcallosal_Cortex_L,27_L,L,SCA,Fr,Fr_SCA_L,L_Fr_SCA,0.3153,4112
SCA_R,Subcallosal_Cortex_R,27_R,R,SCA,Fr,Fr_SCA_R,R_Fr_SCA,0.303,3952
SCLC_L,Supracalcarine_Cortex_L,47_L,L,SCLC,Occ,Occ_SCLC_L,L_Occ_SCLC,0.0442,576
SCLC_R,Supracalcarine_Cortex_R,47_R,R,SCLC,Occ,Occ_SCLC_R,R_Occ_SCLC,0.0865,1128
SFG_L,Superior_Frontal_Gyrus_L,3_L,L,SFG,Fr,Fr_SFG_L,L_Fr_SFG,1.5568,20304
SFG_R,Superior_Frontal_Gyrus_R,3_R,R,SFG,Fr,Fr_SFG_R,R_Fr_SFG,1.4795,19296
SMA_L,Juxtapositional_Lobule_Cortex_(formerly_Supplementary_Motor_Cortex)_L,26_L,L,SMA,Fr,Fr_SMA_L,L_Fr_SMA,0.3913,5104
SMA_R,Juxtapositional_Lobule_Cortex_(formerly_Supplementary_Motor_Cortex)_R,26_R,R,SMA,Fr,Fr_SMA_R,R_Fr_SMA,0.4392,5728
SMG_ant_L,Supramarginal_Gyrus_anterior_L,19_L,L,SMG_ant,Par,Par_SMG_ant_L,L_Par_SMG_ant,0.5803,7568
SMG_ant_R,Supramarginal_Gyrus_anterior_R,19_R,R,SMG_ant,Par,Par_SMG_ant_R,R_Par_SMG_ant,0.4883,6368
SMG_post_L,Supramarginal_Gyrus_posterior_L,20_L,L,SMG_post,Par,Par_SMG_post_L,L_Par_SMG_post,0.6453,8416
SMG_post_R,Supramarginal_Gyrus_posterior_R,20_R,R,SMG_post,Par,Par_SMG_post_R,R_Par_SMG_post,0.7404,9656
SPL_L,Superior_Parietal_Lobule_L,18_L,L,SPL,Par,Par_SPL_L,L_Par_SPL,0.8888,11592
SPL_R,Superior_Parietal_Lobule_R,18_R,R,SPL,Par,Par_SPL_R,R_Par_SPL,0.8949,11672
STG_ant_L,Superior_Temporal_Gyrus_anterior_L,9_L,L,STG_ant,Temp,Temp_STG_ant_L,L_Temp_STG_ant,0.1552,2024
STG_ant_R,Superior_Temporal_Gyrus_anterior_R,9_R,R,STG_ant,Temp,Temp_STG_ant_R,R_Temp_STG_ant,0.1644,2144
STG_post_L,Superior_Temporal_Gyrus_posterior_L,10_L,L,STG_post,Temp,Temp_STG_post_L,L_Temp_STG_post,0.5379,7016
STG_post_R,Superior_Temporal_Gyrus_posterior_R,10_R,R,STG_post,Temp,Temp_STG_post_R,R_Temp_STG_post,0.5846,7624
TL_FuG_ant_L,Temporal_Fusiform_Cortex_anterior_L,37_L,L,TL_FuG_ant,Temp,Temp_TL_FuG_ant_L,L_Temp_TL_FuG_ant,0.1938,2528
TL_FuG_ant_R,Temporal_Fusiform_Cortex_anterior_R,37_R,R,TL_FuG_ant,Temp,Temp_TL_FuG_ant_R,R_Temp_TL_FuG_ant,0.1803,2352
TL_FuG_post_L,Temporal_Fusiform_Cortex_posterior_L,38_L,L,TL_FuG_post,Temp,Temp_TL_FuG_post_L,L_Temp_TL_FuG_post,0.5355,6984
TL_FuG_post_R,Temporal_Fusiform_Cortex_posterior_R,38_R,R,TL_FuG_post,Temp,Temp_TL_FuG_post_R,R_Temp_TL_FuG_post,0.4423,5768
TL_OL_FuG_L,Temporal_Occipital_Fusiform_Cortex_L,39_L,L,TL_OL_FuG,Temp,Temp_TL_OL_FuG_L,L_Temp_TL_OL_FuG,0.3975,5184
TL_OL_FuG_R,Temporal_Occipital_Fusiform_Cortex_R,39_R,R,TL_OL_FuG,Temp,Temp_TL_OL_FuG_R,R_Temp_TL_OL_FuG,0.5036,6568
Th_L,Thalamus_L,54_L,L,Th,Subcort,Subcort_Th_L,L_Subcort_Th,0.8103,10568
Th_R,Thalamus_R,65_R,R,Th,Subcort,Subcort_Th_R,R_Subcort_Th,0.787,10264
VIIIa_L,VIIIa_L,88_L,L,VIIIa,Cb,Cb_VIIIa_L,L_Cb_VIIIa,0.5189,6768
VIIIa_R,VIIIa_R,90_R,R,VIIIa,Cb,Cb_VIIIa_R,R_Cb_VIIIa,0.5128,6688
VIIIb_L,VIIIb_L,91_L,L,VIIIb,Cb,Cb_VIIIb_L,L_Cb_VIIIb,0.4367,5696
VIIIb_R,VIIIb_R,93_R,R,VIIIb,Cb,Cb_VIIIb_R,R_Cb_VIIIb,0.4275,5576
VIIb_L,VIIb_L,85_L,L,VIIb,Cb,Cb_VIIb_L,L_Cb_VIIb,0.4539,5920
VIIb_R,VIIb_R,87_R,R,VIIb,Cb,Cb_VIIb_R,R_Cb_VIIb,0.5116,6672
VI_L,VI_L,76_L,L,VI,Cb,Cb_VI_L,L_Cb_VI,0.9869,12872
VI_R,VI_R,78_R,R,VI,Cb,Cb_VI_R,R_Cb_VI,0.9005,11744
V_L,V_L,74_L,L,V,Cb,Cb_V_L,L_Cb_V,0.403,5256
V_R,V_R,75_R,R,V,Cb,Cb_V_R,R_Cb_V,0.4281,5584
Vermis_Crus_II_L,Vermis_Crus_II_L,83_L,L,Vermis_Crus_II,Cb,Cb_Vermis_Crus_II_L,L_Cb_Vermis_Crus_II,0.0098,128
Vermis_Crus_II_R,Vermis_Crus_II_R,83_R,R,Vermis_Crus_II,Cb,Cb_Vermis_Crus_II_R,R_Cb_Vermis_Crus_II,0.0245,320
Vermis_IX_L,Vermis_IX_L,95_L,L,Vermis_IX,Cb,Cb_Vermis_IX_L,L_Cb_Vermis_IX,0.0196,256
Vermis_IX_R,Vermis_IX_R,95_R,R,Vermis_IX,Cb,Cb_Vermis_IX_R,R_Cb_Vermis_IX,0.0313,408
Vermis_VIIIa_L,Vermis_VIIIa_L,89_L,L,Vermis_VIIIa,Cb,Cb_Vermis_VIIIa_L,L_Cb_Vermis_VIIIa,0.0411,536
Vermis_VIIIa_R,Vermis_VIIIa_R,89_R,R,Vermis_VIIIa,Cb,Cb_Vermis_VIIIa_R,R_Cb_Vermis_VIIIa,0.0662,864
Vermis_VIIIb_L,Vermis_VIIIb_L,92_L,L,Vermis_VIIIb,Cb,Cb_Vermis_VIIIb_L,L_Cb_Vermis_VIIIb,0.0166,216
Vermis_VIIIb_R,Vermis_VIIIb_R,92_R,R,Vermis_VIIIb,Cb,Cb_Vermis_VIIIb_R,R_Cb_Vermis_VIIIb,0.0245,320
Vermis_VIIb_L,Vermis_VIIb_L,86_L,L,Vermis_VIIb,Cb,Cb_Vermis_VIIb_L,L_Cb_Vermis_VIIb,0.0049,64
Vermis_VIIb_R,Vermis_VIIb_R,86_R,R,Vermis_VIIb,Cb,Cb_Vermis_VIIb_R,R_Cb_Vermis_VIIb,0.0037,48
Vermis_VI_L,Vermis_VI_L,77_L,L,Vermis_VI,Cb,Cb_Vermis_VI_L,L_Cb_Vermis_VI,0.0761,992
Vermis_VI_R,Vermis_VI_R,77_R,R,Vermis_VI,Cb,Cb_Vermis_VI_R,R_Cb_Vermis_VI,0.1159,1512
Vermis_X_L,Vermis_X_L,98_L,L,Vermis_X,Cb,Cb_Vermis_X_L,L_Cb_Vermis_X,0.0055,72
Vermis_X_R,Vermis_X_R,98_R,R,Vermis_X,Cb,Cb_Vermis_X_R,R_Cb_Vermis_X,0.0147,192
X_L,X_L,97_L,L,X,Cb,Cb_X_L,L_Cb_X,0.0742,968
X_R,X_R,99_R,R,X,Cb,Cb_X_R,R_Cb_X,0.0767,1000
tmp_L,Temporal_Pole_L,8_L,L,tmp,Temp,Temp_tmp_L,L_Temp_tmp,1.4415,18800
tmp_R,Temporal_Pole_R,8_R,R,tmp,Temp,Temp_tmp_R,R_Temp_tmp,1.4482,18888
